<?xml version="1.0" encoding="utf-8"?>
<!-- Generator: Adobe Illustrator 22.0.1, SVG Export Plug-In . SVG Version: 6.00 Build 0)  -->
<svg version="1.1" id="Layer_1" xmlns="http://www.w3.org/2000/svg" xmlns:xlink="http://www.w3.org/1999/xlink" x="0px" y="0px"
	 viewBox="0 0 1080 1080" style="enable-background:new 0 0 1080 1080;" xml:space="preserve">
<style type="text/css">
	.st0{fill:url(#SVGID_1_);}
	.st1{fill:url(#SVGID_2_);}
	.st2{fill:url(#SVGID_3_);}
</style>
<linearGradient id="SVGID_1_" gradientUnits="userSpaceOnUse" x1="2.7575" y1="54.4399" x2="945.4056" y2="1141.9661">
	<stop  offset="0" style="stop-color:#FF00FF"/>
	<stop  offset="0.5" style="stop-color:#8000FF"/>
	<stop  offset="1" style="stop-color:#1E90FF"/>
</linearGradient>
<path class="st0" d="M201.3,67.7v141.8c0,23.6-12.4,45.5-32.5,57.8c-41.5,25.4-76.7,60-103,100.9V67.7c0-18.7,7.6-35.6,19.8-47.9
	C98,7.6,114.9,0,133.6,0C171,0,201.3,30.3,201.3,67.7z"/>
<linearGradient id="SVGID_2_" gradientUnits="userSpaceOnUse" x1="135.6497" y1="-60.7486" x2="1078.2977" y2="1026.7776">
	<stop  offset="0" style="stop-color:#FF00FF"/>
	<stop  offset="0.5" style="stop-color:#8000FF"/>
	<stop  offset="1" style="stop-color:#1E90FF"/>
</linearGradient>
<path class="st1" d="M1014.1,711.7v300.6c0,18.7-7.6,35.6-19.8,47.9c-12.3,12.2-29.2,19.8-47.9,19.8c-37.4,0-67.7-30.3-67.7-67.7
	V870.4c0-23.6,12.4-45.5,32.5-57.8C952.6,787.2,987.9,752.6,1014.1,711.7z"/>
<linearGradient id="SVGID_3_" gradientUnits="userSpaceOnUse" x1="26.7413" y1="33.6513" x2="969.3893" y2="1121.1774">
	<stop  offset="0" style="stop-color:#FF00FF"/>
	<stop  offset="0.5" style="stop-color:#8000FF"/>
	<stop  offset="1" style="stop-color:#1E90FF"/>
</linearGradient>
<path class="st2" d="M743.2,812.8c-62.6,0-120.3-21.2-166.2-56.9c-13.4-10.4-25.8-22.1-37-34.8c-41.9-47.4-67.4-109.7-67.7-177.8
	c-0.4-73.1-57.6-134.2-130.7-136.7c-77-2.7-140.3,59-140.3,135.4v135.5c0,74.8-60.7,135.5-135.5,135.5l0.5-287.9
	c8.7-141.8,126.5-254,270.4-254c80.9,0,153.6,35.5,203.2,91.8c42.2,47.8,67.7,110.5,67.7,179.2c0,36.1,14.1,68.9,37.1,93.1
	c25.6,27.1,62.4,43.6,102.9,42.3c71.3-2.3,129.1-60.6,130.9-131.9c1.9-76.4-59.5-139-135.4-139c-38.7,0-73.7,16.3-98.4,42.3
	c-13.7-45.3-37.1-86.4-67.8-120.9c62-48.2,145.6-70.1,233.8-48.8c96.5,23.3,172.2,99.4,195.3,196
	C1048.8,653.7,914.6,812.8,743.2,812.8z"/>
</svg>
