<?xml version="1.0" encoding="utf-8"?>
<!-- Generator: Adobe Illustrator 22.0.1, SVG Export Plug-In . SVG Version: 6.00 Build 0)  -->
<svg version="1.1" id="Layer_1" xmlns="http://www.w3.org/2000/svg" xmlns:xlink="http://www.w3.org/1999/xlink" x="0px" y="0px"
	 viewBox="0 0 1080 1080" style="enable-background:new 0 0 1080 1080;" xml:space="preserve">
<style type="text/css">
	.st0{fill:#262626;}
	.st1{fill:url(#SVGID_1_);}
	.st2{fill:url(#SVGID_2_);}
	.st3{fill:url(#SVGID_3_);}
</style>
<circle class="st0" cx="540" cy="540" r="540"/>
<linearGradient id="SVGID_1_" gradientUnits="userSpaceOnUse" x1="203.0996" y1="235.5092" x2="794.2266" y2="917.488">
	<stop  offset="0" style="stop-color:#FF00FF"/>
	<stop  offset="0.5" style="stop-color:#8000FF"/>
	<stop  offset="1" style="stop-color:#1E90FF"/>
</linearGradient>
<path class="st1" d="M327.6,243.8v89c0,14.8-7.8,28.5-20.4,36.3c-26,16-48.1,37.6-64.6,63.3V243.8c0-11.7,4.8-22.3,12.4-30
	c7.7-7.7,18.3-12.4,30-12.4C308.6,201.4,327.6,220.4,327.6,243.8z"/>
<linearGradient id="SVGID_2_" gradientUnits="userSpaceOnUse" x1="286.4352" y1="163.2754" x2="877.5622" y2="845.2543">
	<stop  offset="0" style="stop-color:#FF00FF"/>
	<stop  offset="0.5" style="stop-color:#8000FF"/>
	<stop  offset="1" style="stop-color:#1E90FF"/>
</linearGradient>
<path class="st2" d="M837.3,647.7v188.5c0,11.7-4.8,22.3-12.4,30c-7.7,7.7-18.3,12.4-30,12.4c-23.5,0-42.5-19-42.5-42.5v-89
	c0-14.8,7.8-28.5,20.4-36.3C798.8,695,820.9,673.3,837.3,647.7z"/>
<linearGradient id="SVGID_3_" gradientUnits="userSpaceOnUse" x1="218.1396" y1="222.4728" x2="809.2666" y2="904.4517">
	<stop  offset="0" style="stop-color:#FF00FF"/>
	<stop  offset="0.5" style="stop-color:#8000FF"/>
	<stop  offset="1" style="stop-color:#1E90FF"/>
</linearGradient>
<path class="st3" d="M667.4,711.1c-39.3,0-75.4-13.3-104.2-35.7c-8.4-6.5-16.2-13.9-23.2-21.8c-26.3-29.7-42.3-68.8-42.5-111.5
	c-0.2-45.8-36.1-84.2-81.9-85.8c-48.3-1.7-88,37-88,84.9v85c0,46.9-38,85-85,85l0.3-180.5c5.5-88.9,79.3-159.3,169.6-159.3
	c50.8,0,96.3,22.3,127.4,57.5c26.4,29.9,42.5,69.3,42.5,112.4c0,22.6,8.8,43.2,23.3,58.4c16.1,17,39.1,27.3,64.5,26.5
	c44.7-1.5,81-38,82.1-82.7c1.2-47.9-37.3-87.1-84.9-87.1c-24.3,0-46.2,10.2-61.7,26.5c-8.6-28.4-23.3-54.2-42.5-75.8
	c38.9-30.3,91.3-44,146.6-30.6c60.5,14.6,108,62.4,122.5,122.9C859.1,611.3,774.9,711.1,667.4,711.1z"/>
</svg>
